3 Functions | Programming in the tidyverse
…
Execute the function by adding the brackets:

read_weather_data()

## # A tibble: 196 x 19
##    city_code time                summary icon  precipIntensity
##    <chr>     <dttm>              <chr>   <chr>           <dbl>
##  1 berlin    2019-04-28 15:00:00 Mostly… part…               0
##  2 berlin    2019-04-28 16:00:00 Mostly… part…               0
##  3 berlin    2019-04-28 17:00:00 Mostly… part…               0
##  4 berlin    2019-04-28 18:00:00 Overca… clou…               0
##  5 berlin    2019-04-28 19:00:00 Overca… clou…               0
##  6 berlin    2019-04-28 20:00:00 Mostly… part…               0
##  7 berlin    2019-04-28 21:00:00 Mostly… part…               0
##  8 berlin    2019-04-28 22:00:00 Mostly… part…               0
##  9 berlin    2019-04-28 23:00:00 Mostly… part…               0
## 10 berlin    2019-04-29 00:00:00 Mostly… part…               0
## # … with 186 more rows, and 14 more variables: precipProbability <dbl>,
## #   temperature <dbl>, apparentTemperature <dbl>, dewPoint <dbl>,
## #   humidity <dbl>, pressure <dbl>, windSpeed <dbl>, windGust <dbl>,
## #   windBearing <dbl>, cloudCover <dbl>, uvIndex <dbl>, visibility <dbl>,
## #   ozone <dbl>, precipType <chr>
…
  # Return it
  weather_data
}

read_weather_data()

## # A tibble: 196 x 19
##    city_code time                summary icon  precipIntensity
##    <chr>     <dttm>              <chr>   <chr>           <dbl>
##  1 berlin    2019-04-28 15:00:00 Mostly… part…               0
##  2 berlin    2019-04-28 16:00:00 Mostly… part…               0
##  3 berlin    2019-04-28 17:00:00 Mostly… part…               0
##  4 berlin    2019-04-28 18:00:00 Overca… clou…               0
##  5 berlin    2019-04-28 19:00:00 Overca… clou…               0
##  6 berlin    2019-04-28 20:00:00 Mostly… part…               0
##  7 berlin    2019-04-28 21:00:00 Mostly… part…               0
##  8 berlin    2019-04-28 22:00:00 Mostly… part…               0
##  9 berlin    2019-04-28 23:00:00 Mostly… part…               0
## 10 berlin    2019-04-29 00:00:00 Mostly… part…               0
## # … with 186 more rows, and 14 more variables: precipProbability <dbl>,
## #   temperature <dbl>, apparentTemperature <dbl>, dewPoint <dbl>,
## #   humidity <dbl>, pressure <dbl>, windSpeed <dbl>, windGust <dbl>,
## #   windBearing <dbl>, cloudCover <dbl>, uvIndex <dbl>, visibility <dbl>,
## #   ozone <dbl>, precipType <chr>
…
  # Return it
  weather_data
}

read_weather_data()

## # A tibble: 196 x 19
##    city_code time                summary icon  precipIntensity
##    <chr>     <dttm>              <chr>   <chr>           <dbl>
##  1 berlin    2019-04-28 15:00:00 Mostly… part…               0
##  2 berlin    2019-04-28 16:00:00 Mostly… part…               0
##  3 berlin    2019-04-28 17:00:00 Mostly… part…               0
##  4 berlin    2019-04-28 18:00:00 Overca… clou…               0
##  5 berlin    2019-04-28 19:00:00 Overca… clou…               0
##  6 berlin    2019-04-28 20:00:00 Mostly… part…               0
##  7 berlin    2019-04-28 21:00:00 Mostly… part…               0
##  8 berlin    2019-04-28 22:00:00 Mostly… part…               0
##  9 berlin    2019-04-28 23:00:00 Mostly… part…               0
## 10 berlin    2019-04-29 00:00:00 Mostly… part…               0
## # … with 186 more rows, and 14 more variables: precipProbability <dbl>,
## #   temperature <dbl>, apparentTemperature <dbl>, dewPoint <dbl>,
## #   humidity <dbl>, pressure <dbl>, windSpeed <dbl>, windGust <dbl>,
## #   windBearing <dbl>, cloudCover <dbl>, uvIndex <dbl>, visibility <dbl>,
## #   ozone <dbl>, precipType <chr>
…
  # Return it (filtered)
  weather_data %>%
    filter( !(city_code == "zurich" & omit_zurich) )
}

Set arguments with default values explicitly with or without using the name or leave them out to use the default value:

read_weather_data(TRUE)

## # A tibble: 147 x 19
##    city_code time                summary icon  precipIntensity
##    <chr>     <dttm>              <chr>   <chr>           <dbl>
##  1 berlin    2019-04-28 15:00:00 Mostly… part…               0
##  2 berlin    2019-04-28 16:00:00 Mostly… part…               0
##  3 berlin    2019-04-28 17:00:00 Mostly… part…               0
##  4 berlin    2019-04-28 18:00:00 Overca… clou…               0
##  5 berlin    2019-04-28 19:00:00 Overca… clou…               0
##  6 berlin    2019-04-28 20:00:00 Mostly… part…               0
##  7 berlin    2019-04-28 21:00:00 Mostly… part…               0
##  8 berlin    2019-04-28 22:00:00 Mostly… part…               0
##  9 berlin    2019-04-28 23:00:00 Mostly… part…               0
## 10 berlin    2019-04-29 00:00:00 Mostly… part…               0
## # … with 137 more rows, and 14 more variables: precipProbability <dbl>,
## #   temperature <dbl>, apparentTemperature <dbl>, dewPoint <dbl>,
## #   humidity <dbl>, pressure <dbl>, windSpeed <dbl>, windGust <dbl>,
## #   windBearing <dbl>, cloudCover <dbl>, uvIndex <dbl>, visibility <dbl>,
## #   ozone <dbl>, precipType <chr>

read_weather_data(omit_zurich = TRUE)

## # A tibble: 147 x 19
##    city_code time                summary icon  precipIntensity
##    <chr>     <dttm>              <chr>   <chr>           <dbl>
##  1 berlin    2019-04-28 15:00:00 Mostly… part…               0
##  2 berlin    2019-04-28 16:00:00 Mostly… part…               0
##  3 berlin    2019-04-28 17:00:00 Mostly… part…               0
##  4 berlin    2019-04-28 18:00:00 Overca… clou…               0
##  5 berlin    2019-04-28 19:00:00 Overca… clou…               0
##  6 berlin    2019-04-28 20:00:00 Mostly… part…               0
##  7 berlin    2019-04-28 21:00:00 Mostly… part…               0
##  8 berlin    2019-04-28 22:00:00 Mostly… part…               0
##  9 berlin    2019-04-28 23:00:00 Mostly… part…               0
## 10 berlin    2019-04-29 00:00:00 Mostly… part…               0
## # … with 137 more rows, and 14 more variables: precipProbability <dbl>,
## #   temperature <dbl>, apparentTemperature <dbl>, dewPoint <dbl>,
## #   humidity <dbl>, pressure <dbl>, windSpeed <dbl>, windGust <dbl>,
## #   windBearing <dbl>, cloudCover <dbl>, uvIndex <dbl>, visibility <dbl>,
## #   ozone <dbl>, precipType <chr>

read_weather_data()

## # A tibble: 196 x 19
##    city_code time                summary icon  precipIntensity
##    <chr>     <dttm>              <chr>   <chr>           <dbl>
##  1 berlin    2019-04-28 15:00:00 Mostly… part…               0
##  2 berlin    2019-04-28 16:00:00 Mostly… part…               0
##  3 berlin    2019-04-28 17:00:00 Mostly… part…               0
##  4 berlin    2019-04-28 18:00:00 Overca… clou…               0
##  5 berlin    2019-04-28 19:00:00 Overca… clou…               0
##  6 berlin    2019-04-28 20:00:00 Mostly… part…               0
##  7 berlin    2019-04-28 21:00:00 Mostly… part…               0
##  8 berlin    2019-04-28 22:00:00 Mostly… part…               0
##  9 berlin    2019-04-28 23:00:00 Mostly… part…               0
## 10 berlin    2019-04-29 00:00:00 Mostly… part…               0
## # … with 186 more rows, and 14 more variables: precipProbability <dbl>,
## #   temperature <dbl>, apparentTemperature <dbl>, dewPoint <dbl>,
## #   humidity <dbl>, pressure <dbl>, windSpeed <dbl>, windGust <dbl>,
## #   windBearing <dbl>, cloudCover <dbl>, uvIndex <dbl>, visibility <dbl>,
## #   ozone <dbl>, precipType <chr>
…
weather_path("berlin.xlsx")

## [1] "/home/travis/build/krlmlr/tidyprog/data/weather/berlin.xlsx"

weather_path("some", "subdir", "with", "a", "file.csv")

## [1] "/home/travis/build/krlmlr/tidyprog/data/weather/some/subdir/with/a/file.csv"

Mind, that despite altering the original function and adding new features to it, the original call still works as before:

read_weather_data()

## # A tibble: 196 x 19
##    city_code time                summary icon  precipIntensity
##    <chr>     <dttm>              <chr>   <chr>           <dbl>
##  1 berlin    2019-04-28 15:00:00 Mostly… part…               0
##  2 berlin    2019-04-28 16:00:00 Mostly… part…               0
##  3 berlin    2019-04-28 17:00:00 Mostly… part…               0
##  4 berlin    2019-04-28 18:00:00 Overca… clou…               0
##  5 berlin    2019-04-28 19:00:00 Overca… clou…               0
##  6 berlin    2019-04-28 20:00:00 Mostly… part…               0
##  7 berlin    2019-04-28 21:00:00 Mostly… part…               0
##  8 berlin    2019-04-28 22:00:00 Mostly… part…               0
##  9 berlin    2019-04-28 23:00:00 Mostly… part…               0
## 10 berlin    2019-04-29 00:00:00 Mostly… part…               0
## # … with 186 more rows, and 14 more variables: precipProbability <dbl>,
## #   temperature <dbl>, apparentTemperature <dbl>, dewPoint <dbl>,
## #   humidity <dbl>, pressure <dbl>, windSpeed <dbl>, windGust <dbl>,
## #   windBearing <dbl>, cloudCover <dbl>, uvIndex <dbl>, visibility <dbl>,
## #   ozone <dbl>, precipType <chr>
…
read_berlin <- make_read_weather_file("berlin.xlsx")
read_toronto <- make_read_weather_file("toronto.xlsx")
read_tel_aviv <- make_read_weather_file("tel_aviv.xlsx")
read_zurich <- make_read_weather_file("zurich.xlsx")

read_berlin

## function() {
##     read_weather_file(filename)
##   }
## <environment: 0x88c5948>

read_berlin()

## # A tibble: 49 x 18
##    time                summary icon  precipIntensity precipProbabili…
##    <dttm>              <chr>   <chr>           <dbl>            <dbl>
##  1 2019-04-28 15:00:00 Mostly… part…               0                0
##  2 2019-04-28 16:00:00 Mostly… part…               0                0
##  3 2019-04-28 17:00:00 Mostly… part…               0                0
##  4 2019-04-28 18:00:00 Overca… clou…               0                0
##  5 2019-04-28 19:00:00 Overca… clou…               0                0
##  6 2019-04-28 20:00:00 Mostly… part…               0                0
##  7 2019-04-28 21:00:00 Mostly… part…               0                0
##  8 2019-04-28 22:00:00 Mostly… part…               0                0
##  9 2019-04-28 23:00:00 Mostly… part…               0                0
## 10 2019-04-29 00:00:00 Mostly… part…               0                0
## # … with 39 more rows, and 13 more variables: temperature <dbl>,
## #   apparentTemperature <dbl>, dewPoint <dbl>, humidity <dbl>,
## #   pressure <dbl>, windSpeed <dbl>, windGust <dbl>, windBearing <dbl>,
## #   cloudCover <dbl>, uvIndex <dbl>, visibility <dbl>, ozone <dbl>,
## #   precipType <chr>
…
## function(...) {
##     args <- list(...)
##     msg <- paste0(length(args), " argument(s)")
##     message(msg)
## 
##     f(...)
##   }
## <environment: 0xaaf8c80>

read_loudly("berlin.xlsx")

## 1 argument(s)

## # A tibble: 49 x 18
##    time                summary icon  precipIntensity precipProbabili…
##    <dttm>              <chr>   <chr>           <dbl>            <dbl>
##  1 2019-04-28 15:00:00 Mostly… part…               0                0
##  2 2019-04-28 16:00:00 Mostly… part…               0                0
##  3 2019-04-28 17:00:00 Mostly… part…               0                0
##  4 2019-04-28 18:00:00 Overca… clou…               0                0
##  5 2019-04-28 19:00:00 Overca… clou…               0                0
##  6 2019-04-28 20:00:00 Mostly… part…               0                0
##  7 2019-04-28 21:00:00 Mostly… part…               0                0
##  8 2019-04-28 22:00:00 Mostly… part…               0                0
##  9 2019-04-28 23:00:00 Mostly… part…               0                0
## 10 2019-04-29 00:00:00 Mostly… part…               0                0
## # … with 39 more rows, and 13 more variables: temperature <dbl>,
## #   apparentTemperature <dbl>, dewPoint <dbl>, humidity <dbl>,
## #   pressure <dbl>, windSpeed <dbl>, windGust <dbl>, windBearing <dbl>,
## #   cloudCover <dbl>, uvIndex <dbl>, visibility <dbl>, ozone <dbl>,
## #   precipType <chr>
…
