3 Function basics | Programming in the tidyverse
…
Execute the function by adding the parentheses:

read_weather_data()

## # A tibble: 196 x 19
##   city_code time                summary icon  precipIntensity
##   <chr>     <dttm>              <chr>   <chr>           <dbl>
## 1 berlin    2019-04-28 15:00:00 Mostly… part…               0
## 2 berlin    2019-04-28 16:00:00 Mostly… part…               0
## 3 berlin    2019-04-28 17:00:00 Mostly… part…               0
## # … with 193 more rows, and 14 more variables: precipProbability <dbl>,
## #   temperature <dbl>, apparentTemperature <dbl>, dewPoint <dbl>,
## #   humidity <dbl>, pressure <dbl>, windSpeed <dbl>, windGust <dbl>,
## #   windBearing <dbl>, cloudCover <dbl>, uvIndex <dbl>, visibility <dbl>,
## #   ozone <dbl>, precipType <chr>
…
  # Return it
  weather_data
}

Testing the new function by running it:

read_weather_data()

## # A tibble: 196 x 19
##   city_code time                summary icon  precipIntensity
##   <chr>     <dttm>              <chr>   <chr>           <dbl>
## 1 berlin    2019-04-28 15:00:00 Mostly… part…               0
## 2 berlin    2019-04-28 16:00:00 Mostly… part…               0
## 3 berlin    2019-04-28 17:00:00 Mostly… part…               0
## # … with 193 more rows, and 14 more variables: precipProbability <dbl>,
## #   temperature <dbl>, apparentTemperature <dbl>, dewPoint <dbl>,
## #   humidity <dbl>, pressure <dbl>, windSpeed <dbl>, windGust <dbl>,
## #   windBearing <dbl>, cloudCover <dbl>, uvIndex <dbl>, visibility <dbl>,
## #   ozone <dbl>, precipType <chr>
…
  # Return it
  weather_data
}

read_weather_data()

## # A tibble: 196 x 19
##   city_code time                summary icon  precipIntensity
##   <chr>     <dttm>              <chr>   <chr>           <dbl>
## 1 berlin    2019-04-28 15:00:00 Mostly… part…               0
## 2 berlin    2019-04-28 16:00:00 Mostly… part…               0
## 3 berlin    2019-04-28 17:00:00 Mostly… part…               0
## # … with 193 more rows, and 14 more variables: precipProbability <dbl>,
## #   temperature <dbl>, apparentTemperature <dbl>, dewPoint <dbl>,
## #   humidity <dbl>, pressure <dbl>, windSpeed <dbl>, windGust <dbl>,
## #   windBearing <dbl>, cloudCover <dbl>, uvIndex <dbl>, visibility <dbl>,
## #   ozone <dbl>, precipType <chr>
…
  # Return it
  weather_data
}

read_weather_data()

## # A tibble: 196 x 19
##   city_code time                summary icon  precipIntensity
##   <chr>     <dttm>              <chr>   <chr>           <dbl>
## 1 berlin    2019-04-28 15:00:00 Mostly… part…               0
## 2 berlin    2019-04-28 16:00:00 Mostly… part…               0
## 3 berlin    2019-04-28 17:00:00 Mostly… part…               0
## # … with 193 more rows, and 14 more variables: precipProbability <dbl>,
## #   temperature <dbl>, apparentTemperature <dbl>, dewPoint <dbl>,
## #   humidity <dbl>, pressure <dbl>, windSpeed <dbl>, windGust <dbl>,
## #   windBearing <dbl>, cloudCover <dbl>, uvIndex <dbl>, visibility <dbl>,
## #   ozone <dbl>, precipType <chr>
…
  # Return it (filtered)
  weather_data %>%
    filter( !(city_code == "zurich" & omit_zurich) )
}

Set arguments with default values explicitly with or without using the name or leave them out to use the default value:

read_weather_data(TRUE)

## # A tibble: 147 x 19
##   city_code time                summary icon  precipIntensity
##   <chr>     <dttm>              <chr>   <chr>           <dbl>
## 1 berlin    2019-04-28 15:00:00 Mostly… part…               0
## 2 berlin    2019-04-28 16:00:00 Mostly… part…               0
## 3 berlin    2019-04-28 17:00:00 Mostly… part…               0
## # … with 144 more rows, and 14 more variables: precipProbability <dbl>,
## #   temperature <dbl>, apparentTemperature <dbl>, dewPoint <dbl>,
## #   humidity <dbl>, pressure <dbl>, windSpeed <dbl>, windGust <dbl>,
## #   windBearing <dbl>, cloudCover <dbl>, uvIndex <dbl>, visibility <dbl>,
## #   ozone <dbl>, precipType <chr>

read_weather_data(omit_zurich = TRUE)

## # A tibble: 147 x 19
##   city_code time                summary icon  precipIntensity
##   <chr>     <dttm>              <chr>   <chr>           <dbl>
## 1 berlin    2019-04-28 15:00:00 Mostly… part…               0
## 2 berlin    2019-04-28 16:00:00 Mostly… part…               0
## 3 berlin    2019-04-28 17:00:00 Mostly… part…               0
## # … with 144 more rows, and 14 more variables: precipProbability <dbl>,
## #   temperature <dbl>, apparentTemperature <dbl>, dewPoint <dbl>,
## #   humidity <dbl>, pressure <dbl>, windSpeed <dbl>, windGust <dbl>,
## #   windBearing <dbl>, cloudCover <dbl>, uvIndex <dbl>, visibility <dbl>,
## #   ozone <dbl>, precipType <chr>

read_weather_data()

## # A tibble: 196 x 19
##   city_code time                summary icon  precipIntensity
##   <chr>     <dttm>              <chr>   <chr>           <dbl>
## 1 berlin    2019-04-28 15:00:00 Mostly… part…               0
## 2 berlin    2019-04-28 16:00:00 Mostly… part…               0
## 3 berlin    2019-04-28 17:00:00 Mostly… part…               0
## # … with 193 more rows, and 14 more variables: precipProbability <dbl>,
## #   temperature <dbl>, apparentTemperature <dbl>, dewPoint <dbl>,
## #   humidity <dbl>, pressure <dbl>, windSpeed <dbl>, windGust <dbl>,
## #   windBearing <dbl>, cloudCover <dbl>, uvIndex <dbl>, visibility <dbl>,
## #   ozone <dbl>, precipType <chr>
…
weather_path("berlin.xlsx")

## [1] "/home/travis/build/krlmlr/tidyprog/data/weather/berlin.xlsx"

weather_path("some", "subdir", "with", "a", "file.csv")

## [1] "/home/travis/build/krlmlr/tidyprog/data/weather/some/subdir/with/a/file.csv"

Mind, that despite altering the original function and adding new features to it, the original call still works as before:

read_weather_data()

## # A tibble: 196 x 19
##   city_code time                summary icon  precipIntensity
##   <chr>     <dttm>              <chr>   <chr>           <dbl>
## 1 berlin    2019-04-28 15:00:00 Mostly… part…               0
## 2 berlin    2019-04-28 16:00:00 Mostly… part…               0
## 3 berlin    2019-04-28 17:00:00 Mostly… part…               0
## # … with 193 more rows, and 14 more variables: precipProbability <dbl>,
## #   temperature <dbl>, apparentTemperature <dbl>, dewPoint <dbl>,
## #   humidity <dbl>, pressure <dbl>, windSpeed <dbl>, windGust <dbl>,
## #   windBearing <dbl>, cloudCover <dbl>, uvIndex <dbl>, visibility <dbl>,
## #   ozone <dbl>, precipType <chr>
…
