1 Introduction | Programming in the tidyverse
…
Create one larger tibble from the four smaller ones:

weather_data <- bind_rows(
  berlin = berlin,
  toronto = toronto,
  tel_aviv = tel_aviv,
  zurich = zurich,
  .id = "city_code"
)

1.2.2 Exploration

weather_data

## # A tibble: 196 x 19
##   city_code time                summary icon  precipIntensity
##   <chr>     <dttm>              <chr>   <chr>           <dbl>
## 1 berlin    2019-04-28 15:00:00 Mostly… part…               0
## 2 berlin    2019-04-28 16:00:00 Mostly… part…               0
## 3 berlin    2019-04-28 17:00:00 Mostly… part…               0
## # … with 193 more rows, and 14 more variables: precipProbability <dbl>,
## #   temperature <dbl>, apparentTemperature <dbl>, dewPoint <dbl>,
## #   humidity <dbl>, pressure <dbl>, windSpeed <dbl>, windGust <dbl>,
## #   windBearing <dbl>, cloudCover <dbl>, uvIndex <dbl>, visibility <dbl>,
## #   ozone <dbl>, precipType <chr>
…
1.2.3 Further dplyr transformations

If you want to compare measurements of the same observable at two different points in time, maybe the most straightforward way to do so is to create a new column with an appropriate lag:

weather_data %>%
  group_by(city_code) %>%
  mutate_at(vars(temperature, pressure, humidity), list(lag = lag)) %>%
  ungroup()

## # A tibble: 196 x 22
##   city_code time                summary icon  precipIntensity
##   <chr>     <dttm>              <chr>   <chr>           <dbl>
## 1 berlin    2019-04-28 15:00:00 Mostly… part…               0
## 2 berlin    2019-04-28 16:00:00 Mostly… part…               0
## 3 berlin    2019-04-28 17:00:00 Mostly… part…               0
## # … with 193 more rows, and 17 more variables: precipProbability <dbl>,
## #   temperature <dbl>, apparentTemperature <dbl>, dewPoint <dbl>,
## #   humidity <dbl>, pressure <dbl>, windSpeed <dbl>, windGust <dbl>,
## #   windBearing <dbl>, cloudCover <dbl>, uvIndex <dbl>, visibility <dbl>,
## #   ozone <dbl>, precipType <chr>, temperature_lag <dbl>,
## #   pressure_lag <dbl>, humidity_lag <dbl>
…
weather_data %>%
  count(city_code)

## # A tibble: 4 x 2
##   city_code     n
##   <chr>     <int>
## 1 berlin       49
## 2 tel_aviv     49
## 3 toronto      49
## 4 zurich       49

weather_data %>%
  count(city_code, summary)

## # A tibble: 15 x 3
##   city_code summary           n
##   <chr>     <chr>         <int>
## 1 berlin    Clear            17
## 2 berlin    Mostly Cloudy    11
## 3 berlin    Overcast         18
## # … with 12 more rows
…
