2 Iteration | Programming in the tidyverse
…
Create one larger tibble from the four smaller ones:

weather_data <- bind_rows(
  berlin = berlin,
  toronto = toronto,
  tel_aviv = tel_aviv,
  zurich = zurich,
  .id = "city_code"
)

2.1.3 Exploring the data, visualisations

weather_data

## # A tibble: 196 x 19
##    city_code time                summary icon  precipIntensity
##    <chr>     <dttm>              <chr>   <chr>           <dbl>
##  1 berlin    2019-04-28 15:00:00 Mostly… part…               0
##  2 berlin    2019-04-28 16:00:00 Mostly… part…               0
##  3 berlin    2019-04-28 17:00:00 Mostly… part…               0
##  4 berlin    2019-04-28 18:00:00 Overca… clou…               0
##  5 berlin    2019-04-28 19:00:00 Overca… clou…               0
##  6 berlin    2019-04-28 20:00:00 Mostly… part…               0
##  7 berlin    2019-04-28 21:00:00 Mostly… part…               0
##  8 berlin    2019-04-28 22:00:00 Mostly… part…               0
##  9 berlin    2019-04-28 23:00:00 Mostly… part…               0
## 10 berlin    2019-04-29 00:00:00 Mostly… part…               0
## # … with 186 more rows, and 14 more variables: precipProbability <dbl>,
## #   temperature <dbl>, apparentTemperature <dbl>, dewPoint <dbl>,
## #   humidity <dbl>, pressure <dbl>, windSpeed <dbl>, windGust <dbl>,
## #   windBearing <dbl>, cloudCover <dbl>, uvIndex <dbl>, visibility <dbl>,
## #   ozone <dbl>, precipType <chr>
…
weather_data %>%
  group_by(city_code) %>%
  mutate_at(vars(temperature, pressure, humidity), list(lag = lag)) %>%
  ungroup()

## # A tibble: 196 x 22
##    city_code time                summary icon  precipIntensity
##    <chr>     <dttm>              <chr>   <chr>           <dbl>
##  1 berlin    2019-04-28 15:00:00 Mostly… part…               0
##  2 berlin    2019-04-28 16:00:00 Mostly… part…               0
##  3 berlin    2019-04-28 17:00:00 Mostly… part…               0
##  4 berlin    2019-04-28 18:00:00 Overca… clou…               0
##  5 berlin    2019-04-28 19:00:00 Overca… clou…               0
##  6 berlin    2019-04-28 20:00:00 Mostly… part…               0
##  7 berlin    2019-04-28 21:00:00 Mostly… part…               0
##  8 berlin    2019-04-28 22:00:00 Mostly… part…               0
##  9 berlin    2019-04-28 23:00:00 Mostly… part…               0
## 10 berlin    2019-04-29 00:00:00 Mostly… part…               0
## # … with 186 more rows, and 17 more variables: precipProbability <dbl>,
## #   temperature <dbl>, apparentTemperature <dbl>, dewPoint <dbl>,
## #   humidity <dbl>, pressure <dbl>, windSpeed <dbl>, windGust <dbl>,
## #   windBearing <dbl>, cloudCover <dbl>, uvIndex <dbl>, visibility <dbl>,
## #   ozone <dbl>, precipType <chr>, temperature_lag <dbl>,
## #   pressure_lag <dbl>, humidity_lag <dbl>
…
##                     berlin 
## "data/weather/berlin.xlsx"

input_files[[1]]

## [1] "data/weather/berlin.xlsx"

input_files[["berlin"]]

## [1] "data/weather/berlin.xlsx"

readxl::read_excel(here(input_files[[1]]))

## # A tibble: 49 x 18
##    time                summary icon  precipIntensity precipProbabili…
##    <dttm>              <chr>   <chr>           <dbl>            <dbl>
##  1 2019-04-28 15:00:00 Mostly… part…               0                0
##  2 2019-04-28 16:00:00 Mostly… part…               0                0
##  3 2019-04-28 17:00:00 Mostly… part…               0                0
##  4 2019-04-28 18:00:00 Overca… clou…               0                0
##  5 2019-04-28 19:00:00 Overca… clou…               0                0
##  6 2019-04-28 20:00:00 Mostly… part…               0                0
##  7 2019-04-28 21:00:00 Mostly… part…               0                0
##  8 2019-04-28 22:00:00 Mostly… part…               0                0
##  9 2019-04-28 23:00:00 Mostly… part…               0                0
## 10 2019-04-29 00:00:00 Mostly… part…               0                0
## # … with 39 more rows, and 13 more variables: temperature <dbl>,
## #   apparentTemperature <dbl>, dewPoint <dbl>, humidity <dbl>,
## #   pressure <dbl>, windSpeed <dbl>, windGust <dbl>, windBearing <dbl>,
## #   cloudCover <dbl>, uvIndex <dbl>, visibility <dbl>, ozone <dbl>,
## #   precipType <chr>

input_data <-
  map(input_files, ~ readxl::read_excel(here(.)))
input_data

## $berlin
## # A tibble: 49 x 18
##    time                summary icon  precipIntensity precipProbabili…
##    <dttm>              <chr>   <chr>           <dbl>            <dbl>
##  1 2019-04-28 15:00:00 Mostly… part…               0                0
##  2 2019-04-28 16:00:00 Mostly… part…               0                0
##  3 2019-04-28 17:00:00 Mostly… part…               0                0
##  4 2019-04-28 18:00:00 Overca… clou…               0                0
##  5 2019-04-28 19:00:00 Overca… clou…               0                0
##  6 2019-04-28 20:00:00 Mostly… part…               0                0
##  7 2019-04-28 21:00:00 Mostly… part…               0                0
##  8 2019-04-28 22:00:00 Mostly… part…               0                0
##  9 2019-04-28 23:00:00 Mostly… part…               0                0
## 10 2019-04-29 00:00:00 Mostly… part…               0                0
## # … with 39 more rows, and 13 more variables: temperature <dbl>,
## #   apparentTemperature <dbl>, dewPoint <dbl>, humidity <dbl>,
## #   pressure <dbl>, windSpeed <dbl>, windGust <dbl>, windBearing <dbl>,
## #   cloudCover <dbl>, uvIndex <dbl>, visibility <dbl>, ozone <dbl>,
## #   precipType <chr>
## 
## $toronto
## # A tibble: 49 x 18
##    time                summary icon  precipIntensity precipProbabili…
##    <dttm>              <chr>   <chr>           <dbl>            <dbl>
##  1 2019-04-28 15:00:00 Partly… part…          0                  0   
##  2 2019-04-28 16:00:00 Clear   clea…          0                  0   
##  3 2019-04-28 17:00:00 Clear   clea…          0                  0   
##  4 2019-04-28 18:00:00 Clear   clea…          0.0508             0.04
##  5 2019-04-28 19:00:00 Clear   clea…          0.0483             0.03
##  6 2019-04-28 20:00:00 Clear   clea…          0.0203             0.02
##  7 2019-04-28 21:00:00 Clear   clea…          0.0102             0.02
##  8 2019-04-28 22:00:00 Clear   clea…          0                  0   
##  9 2019-04-28 23:00:00 Clear   clea…          0.0356             0.02
## 10 2019-04-29 00:00:00 Partly… part…          0.0381             0.02
## # … with 39 more rows, and 13 more variables: temperature <dbl>,
## #   apparentTemperature <dbl>, dewPoint <dbl>, humidity <dbl>,
## #   pressure <dbl>, windSpeed <dbl>, windGust <dbl>, windBearing <dbl>,
## #   cloudCover <dbl>, uvIndex <dbl>, visibility <dbl>, ozone <dbl>,
## #   precipType <chr>
## 
## $tel_aviv
## # A tibble: 49 x 17
##    time                summary icon  precipIntensity precipProbabili…
##    <dttm>              <chr>   <chr>           <dbl>            <dbl>
##  1 2019-04-28 15:00:00 Partly… part…               0                0
##  2 2019-04-28 16:00:00 Clear   clea…               0                0
##  3 2019-04-28 17:00:00 Clear   clea…               0                0
##  4 2019-04-28 18:00:00 Clear   clea…               0                0
##  5 2019-04-28 19:00:00 Clear   clea…               0                0
##  6 2019-04-28 20:00:00 Clear   clea…               0                0
##  7 2019-04-28 21:00:00 Clear   clea…               0                0
##  8 2019-04-28 22:00:00 Clear   clea…               0                0
##  9 2019-04-28 23:00:00 Clear   clea…               0                0
## 10 2019-04-29 00:00:00 Clear   clea…               0                0
## # … with 39 more rows, and 12 more variables: temperature <dbl>,
## #   apparentTemperature <dbl>, dewPoint <dbl>, humidity <dbl>,
## #   pressure <dbl>, windSpeed <dbl>, windGust <dbl>, windBearing <dbl>,
## #   cloudCover <dbl>, uvIndex <dbl>, visibility <dbl>, ozone <dbl>
## 
## $zurich
## # A tibble: 49 x 18
##    time                summary icon  precipIntensity precipProbabili…
##    <dttm>              <chr>   <chr>           <dbl>            <dbl>
##  1 2019-04-28 15:00:00 Mostly… part…          0.267              0.28
##  2 2019-04-28 16:00:00 Mostly… part…          0.198              0.27
##  3 2019-04-28 17:00:00 Mostly… part…          0.137              0.25
##  4 2019-04-28 18:00:00 Mostly… part…          0.0889             0.2 
##  5 2019-04-28 19:00:00 Mostly… part…          0.0406             0.14
##  6 2019-04-28 20:00:00 Partly… part…          0.0076             0.09
##  7 2019-04-28 21:00:00 Partly… part…          0                  0   
##  8 2019-04-28 22:00:00 Partly… part…          0                  0   
##  9 2019-04-28 23:00:00 Partly… part…          0.0076             0.04
## 10 2019-04-29 00:00:00 Mostly… part…          0.0127             0.05
## # … with 39 more rows, and 13 more variables: precipType <chr>,
## #   temperature <dbl>, apparentTemperature <dbl>, dewPoint <dbl>,
## #   humidity <dbl>, pressure <dbl>, windSpeed <dbl>, windGust <dbl>,
## #   windBearing <dbl>, cloudCover <dbl>, uvIndex <dbl>, visibility <dbl>,
## #   ozone <dbl>

input_data[[1]]

## # A tibble: 49 x 18
##    time                summary icon  precipIntensity precipProbabili…
##    <dttm>              <chr>   <chr>           <dbl>            <dbl>
##  1 2019-04-28 15:00:00 Mostly… part…               0                0
##  2 2019-04-28 16:00:00 Mostly… part…               0                0
##  3 2019-04-28 17:00:00 Mostly… part…               0                0
##  4 2019-04-28 18:00:00 Overca… clou…               0                0
##  5 2019-04-28 19:00:00 Overca… clou…               0                0
##  6 2019-04-28 20:00:00 Mostly… part…               0                0
##  7 2019-04-28 21:00:00 Mostly… part…               0                0
##  8 2019-04-28 22:00:00 Mostly… part…               0                0
##  9 2019-04-28 23:00:00 Mostly… part…               0                0
## 10 2019-04-29 00:00:00 Mostly… part…               0                0
## # … with 39 more rows, and 13 more variables: temperature <dbl>,
## #   apparentTemperature <dbl>, dewPoint <dbl>, humidity <dbl>,
## #   pressure <dbl>, windSpeed <dbl>, windGust <dbl>, windBearing <dbl>,
## #   cloudCover <dbl>, uvIndex <dbl>, visibility <dbl>, ozone <dbl>,
## #   precipType <chr>

names(input_data)

## [1] "berlin"   "toronto"  "tel_aviv" "zurich"

input_files %>%
  map(~ readxl::read_excel(here(.)))

## $berlin
## # A tibble: 49 x 18
##    time                summary icon  precipIntensity precipProbabili…
##    <dttm>              <chr>   <chr>           <dbl>            <dbl>
##  1 2019-04-28 15:00:00 Mostly… part…               0                0
##  2 2019-04-28 16:00:00 Mostly… part…               0                0
##  3 2019-04-28 17:00:00 Mostly… part…               0                0
##  4 2019-04-28 18:00:00 Overca… clou…               0                0
##  5 2019-04-28 19:00:00 Overca… clou…               0                0
##  6 2019-04-28 20:00:00 Mostly… part…               0                0
##  7 2019-04-28 21:00:00 Mostly… part…               0                0
##  8 2019-04-28 22:00:00 Mostly… part…               0                0
##  9 2019-04-28 23:00:00 Mostly… part…               0                0
## 10 2019-04-29 00:00:00 Mostly… part…               0                0
## # … with 39 more rows, and 13 more variables: temperature <dbl>,
## #   apparentTemperature <dbl>, dewPoint <dbl>, humidity <dbl>,
## #   pressure <dbl>, windSpeed <dbl>, windGust <dbl>, windBearing <dbl>,
## #   cloudCover <dbl>, uvIndex <dbl>, visibility <dbl>, ozone <dbl>,
## #   precipType <chr>
## 
## $toronto
## # A tibble: 49 x 18
##    time                summary icon  precipIntensity precipProbabili…
##    <dttm>              <chr>   <chr>           <dbl>            <dbl>
##  1 2019-04-28 15:00:00 Partly… part…          0                  0   
##  2 2019-04-28 16:00:00 Clear   clea…          0                  0   
##  3 2019-04-28 17:00:00 Clear   clea…          0                  0   
##  4 2019-04-28 18:00:00 Clear   clea…          0.0508             0.04
##  5 2019-04-28 19:00:00 Clear   clea…          0.0483             0.03
##  6 2019-04-28 20:00:00 Clear   clea…          0.0203             0.02
##  7 2019-04-28 21:00:00 Clear   clea…          0.0102             0.02
##  8 2019-04-28 22:00:00 Clear   clea…          0                  0   
##  9 2019-04-28 23:00:00 Clear   clea…          0.0356             0.02
## 10 2019-04-29 00:00:00 Partly… part…          0.0381             0.02
## # … with 39 more rows, and 13 more variables: temperature <dbl>,
## #   apparentTemperature <dbl>, dewPoint <dbl>, humidity <dbl>,
## #   pressure <dbl>, windSpeed <dbl>, windGust <dbl>, windBearing <dbl>,
## #   cloudCover <dbl>, uvIndex <dbl>, visibility <dbl>, ozone <dbl>,
## #   precipType <chr>
## 
## $tel_aviv
## # A tibble: 49 x 17
##    time                summary icon  precipIntensity precipProbabili…
##    <dttm>              <chr>   <chr>           <dbl>            <dbl>
##  1 2019-04-28 15:00:00 Partly… part…               0                0
##  2 2019-04-28 16:00:00 Clear   clea…               0                0
##  3 2019-04-28 17:00:00 Clear   clea…               0                0
##  4 2019-04-28 18:00:00 Clear   clea…               0                0
##  5 2019-04-28 19:00:00 Clear   clea…               0                0
##  6 2019-04-28 20:00:00 Clear   clea…               0                0
##  7 2019-04-28 21:00:00 Clear   clea…               0                0
##  8 2019-04-28 22:00:00 Clear   clea…               0                0
##  9 2019-04-28 23:00:00 Clear   clea…               0                0
## 10 2019-04-29 00:00:00 Clear   clea…               0                0
## # … with 39 more rows, and 12 more variables: temperature <dbl>,
## #   apparentTemperature <dbl>, dewPoint <dbl>, humidity <dbl>,
## #   pressure <dbl>, windSpeed <dbl>, windGust <dbl>, windBearing <dbl>,
## #   cloudCover <dbl>, uvIndex <dbl>, visibility <dbl>, ozone <dbl>
## 
## $zurich
## # A tibble: 49 x 18
##    time                summary icon  precipIntensity precipProbabili…
##    <dttm>              <chr>   <chr>           <dbl>            <dbl>
##  1 2019-04-28 15:00:00 Mostly… part…          0.267              0.28
##  2 2019-04-28 16:00:00 Mostly… part…          0.198              0.27
##  3 2019-04-28 17:00:00 Mostly… part…          0.137              0.25
##  4 2019-04-28 18:00:00 Mostly… part…          0.0889             0.2 
##  5 2019-04-28 19:00:00 Mostly… part…          0.0406             0.14
##  6 2019-04-28 20:00:00 Partly… part…          0.0076             0.09
##  7 2019-04-28 21:00:00 Partly… part…          0                  0   
##  8 2019-04-28 22:00:00 Partly… part…          0                  0   
##  9 2019-04-28 23:00:00 Partly… part…          0.0076             0.04
## 10 2019-04-29 00:00:00 Mostly… part…          0.0127             0.05
## # … with 39 more rows, and 13 more variables: precipType <chr>,
## #   temperature <dbl>, apparentTemperature <dbl>, dewPoint <dbl>,
## #   humidity <dbl>, pressure <dbl>, windSpeed <dbl>, windGust <dbl>,
## #   windBearing <dbl>, cloudCover <dbl>, uvIndex <dbl>, visibility <dbl>,
## #   ozone <dbl>
…
input_data <-
  dict %>%
  select(city_code, weather_filename) %>%
  deframe() %>%
  map(~ readxl::read_excel(here(.)))

input_data %>%
  map(~ select(., time, contains("emperature")))

## $berlin
## # A tibble: 49 x 3
##    time                temperature apparentTemperature
##    <dttm>                    <dbl>               <dbl>
##  1 2019-04-28 15:00:00       13.4                13.4 
##  2 2019-04-28 16:00:00       13.6                13.6 
##  3 2019-04-28 17:00:00       14.1                14.1 
##  4 2019-04-28 18:00:00       13.7                13.7 
##  5 2019-04-28 19:00:00       12.6                12.6 
##  6 2019-04-28 20:00:00       11.6                11.6 
##  7 2019-04-28 21:00:00       10.7                10.7 
##  8 2019-04-28 22:00:00       10.2                10.2 
##  9 2019-04-28 23:00:00        9.78                7.73
## 10 2019-04-29 00:00:00        9.48                7.31
## # … with 39 more rows
## 
## $toronto
## # A tibble: 49 x 3
##    time                temperature apparentTemperature
##    <dttm>                    <dbl>               <dbl>
##  1 2019-04-28 15:00:00        7.46                3.96
##  2 2019-04-28 16:00:00        8.17                5.04
##  3 2019-04-28 17:00:00        8.82                6.52
##  4 2019-04-28 18:00:00        9.37                7.57
##  5 2019-04-28 19:00:00        9.79                7.88
##  6 2019-04-28 20:00:00        9.99                7.79
##  7 2019-04-28 21:00:00        9.74                7.32
##  8 2019-04-28 22:00:00        9.14                6.57
##  9 2019-04-28 23:00:00        8.17                5.46
## 10 2019-04-29 00:00:00        7.23                4.42
## # … with 39 more rows
## 
## $tel_aviv
## # A tibble: 49 x 3
##    time                temperature apparentTemperature
##    <dttm>                    <dbl>               <dbl>
##  1 2019-04-28 15:00:00        23.9                23.9
##  2 2019-04-28 16:00:00        23.1                23.1
##  3 2019-04-28 17:00:00        22.4                22.4
##  4 2019-04-28 18:00:00        22.0                22.0
##  5 2019-04-28 19:00:00        21.6                21.6
##  6 2019-04-28 20:00:00        21.5                21.5
##  7 2019-04-28 21:00:00        21.2                21.2
##  8 2019-04-28 22:00:00        20.8                20.8
##  9 2019-04-28 23:00:00        20.2                20.2
## 10 2019-04-29 00:00:00        19.8                19.8
## # … with 39 more rows
## 
## $zurich
## # A tibble: 49 x 3
##    time                temperature apparentTemperature
##    <dttm>                    <dbl>               <dbl>
##  1 2019-04-28 15:00:00        6.96                3.89
##  2 2019-04-28 16:00:00        7.14                4.33
##  3 2019-04-28 17:00:00        7.32                5.41
##  4 2019-04-28 18:00:00        7.08                6.02
##  5 2019-04-28 19:00:00        6.37                5.49
##  6 2019-04-28 20:00:00        5.49                5.49
##  7 2019-04-28 21:00:00        4.48                4.48
##  8 2019-04-28 22:00:00        3.87                3.87
##  9 2019-04-28 23:00:00        3.52                3.52
## 10 2019-04-29 00:00:00        3.29                3.29
## # … with 39 more rows
…
## 10 2019-04-30 09:00:00        14.9                14.9
## 11 2019-04-30 10:00:00        16.5                16.5
## 12 2019-04-30 11:00:00        18.0                18.0
## 13 2019-04-30 12:00:00        18.8                18.8
## 14 2019-04-30 13:00:00        19.0                19.0
## 15 2019-04-30 14:00:00        18.7                18.7
## 16 2019-04-30 15:00:00        18.3                18.3
## 
## $toronto
## # A tibble: 0 x 3
## # … with 3 variables: time <dttm>, temperature <dbl>,
## #   apparentTemperature <dbl>
## 
## $tel_aviv
## # A tibble: 49 x 3
##    time                temperature apparentTemperature
##    <dttm>                    <dbl>               <dbl>
##  1 2019-04-28 15:00:00        23.9                23.9
##  2 2019-04-28 16:00:00        23.1                23.1
##  3 2019-04-28 17:00:00        22.4                22.4
##  4 2019-04-28 18:00:00        22.0                22.0
##  5 2019-04-28 19:00:00        21.6                21.6
##  6 2019-04-28 20:00:00        21.5                21.5
##  7 2019-04-28 21:00:00        21.2                21.2
##  8 2019-04-28 22:00:00        20.8                20.8
##  9 2019-04-28 23:00:00        20.2                20.2
## 10 2019-04-29 00:00:00        19.8                19.8
## # … with 39 more rows
## 
## $zurich
…
