4 Pairwise iteration and nesting | Programming in the tidyverse
…
## 10 2019-04-30T09:00:00Z        14.9                14.9
## 11 2019-04-30T10:00:00Z        16.5                16.5
## 12 2019-04-30T11:00:00Z        18.0                18.0
## 13 2019-04-30T12:00:00Z        18.8                18.8
## 14 2019-04-30T13:00:00Z        19.0                19.0
## 15 2019-04-30T14:00:00Z        18.7                18.7
## 16 2019-04-30T15:00:00Z        18.3                18.3
## 
## $toronto
## # A tibble: 0 x 3
## # … with 3 variables: time <chr>, temperature <dbl>,
## #   apparentTemperature <dbl>
## 
## $tel_aviv
## # A tibble: 49 x 3
##    time                 temperature apparentTemperature
##    <chr>                      <dbl>               <dbl>
##  1 2019-04-28T15:00:00Z        23.9                23.9
##  2 2019-04-28T16:00:00Z        23.1                23.1
##  3 2019-04-28T17:00:00Z        22.4                22.4
##  4 2019-04-28T18:00:00Z        22.0                22.0
##  5 2019-04-28T19:00:00Z        21.6                21.6
##  6 2019-04-28T20:00:00Z        21.5                21.5
##  7 2019-04-28T21:00:00Z        21.2                21.2
##  8 2019-04-28T22:00:00Z        20.8                20.8
##  9 2019-04-28T23:00:00Z        20.2                20.2
## 10 2019-04-29T00:00:00Z        19.8                19.8
## # … with 39 more rows
## 
## $zurich
…
library(tidyverse)
library(here)

dict <- readxl::read_excel(here("data/cities.xlsx"))

dict_data <-
  dict %>%
  mutate(data = map(weather_filename, ~ readxl::read_excel(here(.)))) %>%
  select(-weather_filename)

dict_data %>%
  unnest()

## # A tibble: 196 x 22
##    city_code name    lng   lat time                summary icon 
##    <chr>     <chr> <dbl> <dbl> <dttm>              <chr>   <chr>
##  1 berlin    Berl…  13.4  52.5 2019-04-28 15:00:00 Mostly… part…
##  2 berlin    Berl…  13.4  52.5 2019-04-28 16:00:00 Mostly… part…
##  3 berlin    Berl…  13.4  52.5 2019-04-28 17:00:00 Mostly… part…
##  4 berlin    Berl…  13.4  52.5 2019-04-28 18:00:00 Overca… clou…
##  5 berlin    Berl…  13.4  52.5 2019-04-28 19:00:00 Overca… clou…
##  6 berlin    Berl…  13.4  52.5 2019-04-28 20:00:00 Mostly… part…
##  7 berlin    Berl…  13.4  52.5 2019-04-28 21:00:00 Mostly… part…
##  8 berlin    Berl…  13.4  52.5 2019-04-28 22:00:00 Mostly… part…
##  9 berlin    Berl…  13.4  52.5 2019-04-28 23:00:00 Mostly… part…
## 10 berlin    Berl…  13.4  52.5 2019-04-29 00:00:00 Mostly… part…
## # … with 186 more rows, and 15 more variables: precipIntensity <dbl>,
## #   precipProbability <dbl>, temperature <dbl>, apparentTemperature <dbl>,
## #   dewPoint <dbl>, humidity <dbl>, pressure <dbl>, windSpeed <dbl>,
## #   windGust <dbl>, windBearing <dbl>, cloudCover <dbl>, uvIndex <dbl>,
## #   visibility <dbl>, ozone <dbl>, precipType <chr>
…
