5 Scoping and flow control | Programming in the tidyverse
…
read_berlin <- make_read_weather_file("berlin.xlsx")
read_toronto <- make_read_weather_file("toronto.xlsx")
read_tel_aviv <- make_read_weather_file("tel_aviv.xlsx")
read_zurich <- make_read_weather_file("zurich.xlsx")

read_berlin

## function() {
##     read_weather_file(filename)
##   }
## <environment: 0x76cc418>

read_berlin()

## # A tibble: 49 x 18
##   time                summary icon  precipIntensity precipProbabili…
##   <dttm>              <chr>   <chr>           <dbl>            <dbl>
## 1 2019-04-28 15:00:00 Mostly… part…               0                0
## 2 2019-04-28 16:00:00 Mostly… part…               0                0
## 3 2019-04-28 17:00:00 Mostly… part…               0                0
## # … with 46 more rows, and 13 more variables: temperature <dbl>,
## #   apparentTemperature <dbl>, dewPoint <dbl>, humidity <dbl>,
## #   pressure <dbl>, windSpeed <dbl>, windGust <dbl>, windBearing <dbl>,
## #   cloudCover <dbl>, uvIndex <dbl>, visibility <dbl>, ozone <dbl>,
## #   precipType <chr>
…
## function(...) {
##     args <- list(...)
##     msg <- paste0(length(args), " argument(s)")
##     message(msg)
## 
##     f(...)
##   }
## <environment: 0xa21e790>

read_loudly("berlin.xlsx")

## 1 argument(s)

## # A tibble: 49 x 18
##   time                summary icon  precipIntensity precipProbabili…
##   <dttm>              <chr>   <chr>           <dbl>            <dbl>
## 1 2019-04-28 15:00:00 Mostly… part…               0                0
## 2 2019-04-28 16:00:00 Mostly… part…               0                0
## 3 2019-04-28 17:00:00 Mostly… part…               0                0
## # … with 46 more rows, and 13 more variables: temperature <dbl>,
## #   apparentTemperature <dbl>, dewPoint <dbl>, humidity <dbl>,
## #   pressure <dbl>, windSpeed <dbl>, windGust <dbl>, windBearing <dbl>,
## #   cloudCover <dbl>, uvIndex <dbl>, visibility <dbl>, ozone <dbl>,
## #   precipType <chr>
…
