2 Simple iteration | Programming in the tidyverse
…
Create one larger tibble from the four smaller ones:

weather_data <- bind_rows(
  berlin = berlin,
  toronto = toronto,
  tel_aviv = tel_aviv,
  zurich = zurich,
  .id = "city_code"
)

2.1.2 Exploration

weather_data

## # A tibble: 196 x 19
##   city_code time                summary icon  precipIntensity
##   <chr>     <dttm>              <chr>   <chr>           <dbl>
## 1 berlin    2019-04-28 15:00:00 Mostly… part…               0
## 2 berlin    2019-04-28 16:00:00 Mostly… part…               0
## 3 berlin    2019-04-28 17:00:00 Mostly… part…               0
## # … with 193 more rows, and 14 more variables: precipProbability <dbl>,
## #   temperature <dbl>, apparentTemperature <dbl>, dewPoint <dbl>,
## #   humidity <dbl>, pressure <dbl>, windSpeed <dbl>, windGust <dbl>,
## #   windBearing <dbl>, cloudCover <dbl>, uvIndex <dbl>, visibility <dbl>,
## #   ozone <dbl>, precipType <chr>
…
2.1.3 Further possibilities of using {dplyr} to transform data

If you want to compare measurements of the same observable at two different points in time, maybe the most straightforward way to do so is to create a new column with an appropriate lag:

weather_data %>%
  group_by(city_code) %>%
  mutate_at(vars(temperature, pressure, humidity), list(lag = lag)) %>%
  ungroup()

## # A tibble: 196 x 22
##   city_code time                summary icon  precipIntensity
##   <chr>     <dttm>              <chr>   <chr>           <dbl>
## 1 berlin    2019-04-28 15:00:00 Mostly… part…               0
## 2 berlin    2019-04-28 16:00:00 Mostly… part…               0
## 3 berlin    2019-04-28 17:00:00 Mostly… part…               0
## # … with 193 more rows, and 17 more variables: precipProbability <dbl>,
## #   temperature <dbl>, apparentTemperature <dbl>, dewPoint <dbl>,
## #   humidity <dbl>, pressure <dbl>, windSpeed <dbl>, windGust <dbl>,
## #   windBearing <dbl>, cloudCover <dbl>, uvIndex <dbl>, visibility <dbl>,
## #   ozone <dbl>, precipType <chr>, temperature_lag <dbl>,
## #   pressure_lag <dbl>, humidity_lag <dbl>
…
weather_data %>%
  count(city_code)

## # A tibble: 4 x 2
##   city_code     n
##   <chr>     <int>
## 1 berlin       49
## 2 tel_aviv     49
## 3 toronto      49
## 4 zurich       49

weather_data %>%
  count(city_code, summary)

## # A tibble: 15 x 3
##   city_code summary           n
##   <chr>     <chr>         <int>
## 1 berlin    Clear            17
## 2 berlin    Mostly Cloudy    11
## 3 berlin    Overcast         18
## # … with 12 more rows
…
files_df %>%
  pull(name)

## [1] 1 2 3 4

2.2.1 Exercises

Investigate the output of fs::dir_ls() with enframe(). Explain.

# install.packages("fs")
fs::dir_ls()
fs::dir_ls() %>%
  ___()

## # A tibble: 36 x 2
 ##   name         value       
 ##   <chr>        <fs::path>  
 ## 1 2.Rmd        2.Rmd       
 ## 2 21-intro.Rmd 21-intro.Rmd
 ## 3 22-dir.Rmd   22-dir.Rmd  
 ## # … with 33 more rows
…
##     berlin    toronto   tel_aviv     zurich 
##   "Berlin"  "Toronto" "Tel Aviv"   "Zürich"

Convert the output of fs::dir_info() to that seen from fs::dir_ls(). How do you make sure that the vector is named?

# install.packages("fs")
fs::dir_info()
fs::dir_info() %>% 
  pull(___)
fs::dir_info() %>%
  select(_____, _____) %>% 
  ___()

## # A tibble: 36 x 18
 ##   path       type     size permissions modification_time   user  group
 ##   <fs::path> <fct> <fs::b> <fs::perms> <dttm>              <chr> <chr>
 ## 1 2.Rmd      file      462 rw-rw-r--   2019-05-09 19:15:56 trav… trav…
 ## 2 21-intro.… file    5.24K rw-rw-r--   2019-05-09 19:15:56 trav… trav…
 ## 3 22-dir.Rmd file    2.41K rw-rw-r--   2019-05-09 19:15:56 trav… trav…
 ## # … with 33 more rows, and 11 more variables: device_id <dbl>,
 ## #   hard_links <dbl>, special_device_id <dbl>, inode <dbl>,
 ## #   block_size <dbl>, blocks <dbl>, flags <int>, generation <dbl>,
 ## #   access_time <dttm>, change_time <dttm>, birth_time <dttm>
…
dict <- readxl::read_excel(here("data/cities.xlsx"))

input_files <-
  dict %>%
  select(city_code, weather_filename) %>%
  deframe()

Here we look at how to act on each entry of a list or a vector using purrr::map():

We start with the named vector input_files from section “Indexing”.
As just seen, manually choosing just one entry of a vector works like so:

readxl::read_excel(here(input_files[[1]]))

## # A tibble: 49 x 18
##   time                summary icon  precipIntensity precipProbabili…
##   <dttm>              <chr>   <chr>           <dbl>            <dbl>
## 1 2019-04-28 15:00:00 Mostly… part…               0                0
## 2 2019-04-28 16:00:00 Mostly… part…               0                0
## 3 2019-04-28 17:00:00 Mostly… part…               0                0
## # … with 46 more rows, and 13 more variables: temperature <dbl>,
## #   apparentTemperature <dbl>, dewPoint <dbl>, humidity <dbl>,
## #   pressure <dbl>, windSpeed <dbl>, windGust <dbl>, windBearing <dbl>,
## #   cloudCover <dbl>, uvIndex <dbl>, visibility <dbl>, ozone <dbl>,
## #   precipType <chr>

With map(), you can successively work through the whole vector and each time let the same function deal with the respective entry.
The output of map() is a list where each element contains one results.
The list is named if the input is named:

input_data <-
  map(input_files, ~ readxl::read_excel(here(.)))

Let’s take a closer look at what we produced:

input_data

## $berlin
## # A tibble: 49 x 18
##   time                summary icon  precipIntensity precipProbabili…
##   <dttm>              <chr>   <chr>           <dbl>            <dbl>
## 1 2019-04-28 15:00:00 Mostly… part…               0                0
## 2 2019-04-28 16:00:00 Mostly… part…               0                0
## 3 2019-04-28 17:00:00 Mostly… part…               0                0
## # … with 46 more rows, and 13 more variables: temperature <dbl>,
## #   apparentTemperature <dbl>, dewPoint <dbl>, humidity <dbl>,
## #   pressure <dbl>, windSpeed <dbl>, windGust <dbl>, windBearing <dbl>,
## #   cloudCover <dbl>, uvIndex <dbl>, visibility <dbl>, ozone <dbl>,
## #   precipType <chr>
## 
## $toronto
## # A tibble: 49 x 18
##   time                summary icon  precipIntensity precipProbabili…
##   <dttm>              <chr>   <chr>           <dbl>            <dbl>
## 1 2019-04-28 15:00:00 Partly… part…               0                0
## 2 2019-04-28 16:00:00 Clear   clea…               0                0
## 3 2019-04-28 17:00:00 Clear   clea…               0                0
## # … with 46 more rows, and 13 more variables: temperature <dbl>,
## #   apparentTemperature <dbl>, dewPoint <dbl>, humidity <dbl>,
## #   pressure <dbl>, windSpeed <dbl>, windGust <dbl>, windBearing <dbl>,
## #   cloudCover <dbl>, uvIndex <dbl>, visibility <dbl>, ozone <dbl>,
## #   precipType <chr>
## 
## $tel_aviv
## # A tibble: 49 x 17
##   time                summary icon  precipIntensity precipProbabili…
##   <dttm>              <chr>   <chr>           <dbl>            <dbl>
## 1 2019-04-28 15:00:00 Partly… part…               0                0
## 2 2019-04-28 16:00:00 Clear   clea…               0                0
## 3 2019-04-28 17:00:00 Clear   clea…               0                0
## # … with 46 more rows, and 12 more variables: temperature <dbl>,
## #   apparentTemperature <dbl>, dewPoint <dbl>, humidity <dbl>,
## #   pressure <dbl>, windSpeed <dbl>, windGust <dbl>, windBearing <dbl>,
## #   cloudCover <dbl>, uvIndex <dbl>, visibility <dbl>, ozone <dbl>
## 
## $zurich
## # A tibble: 49 x 18
##   time                summary icon  precipIntensity precipProbabili…
##   <dttm>              <chr>   <chr>           <dbl>            <dbl>
## 1 2019-04-28 15:00:00 Mostly… part…           0.267             0.28
## 2 2019-04-28 16:00:00 Mostly… part…           0.198             0.27
## 3 2019-04-28 17:00:00 Mostly… part…           0.137             0.25
## # … with 46 more rows, and 13 more variables: precipType <chr>,
## #   temperature <dbl>, apparentTemperature <dbl>, dewPoint <dbl>,
## #   humidity <dbl>, pressure <dbl>, windSpeed <dbl>, windGust <dbl>,
## #   windBearing <dbl>, cloudCover <dbl>, uvIndex <dbl>, visibility <dbl>,
## #   ozone <dbl>

input_data[[1]]

## # A tibble: 49 x 18
##   time                summary icon  precipIntensity precipProbabili…
##   <dttm>              <chr>   <chr>           <dbl>            <dbl>
## 1 2019-04-28 15:00:00 Mostly… part…               0                0
## 2 2019-04-28 16:00:00 Mostly… part…               0                0
## 3 2019-04-28 17:00:00 Mostly… part…               0                0
## # … with 46 more rows, and 13 more variables: temperature <dbl>,
## #   apparentTemperature <dbl>, dewPoint <dbl>, humidity <dbl>,
## #   pressure <dbl>, windSpeed <dbl>, windGust <dbl>, windBearing <dbl>,
## #   cloudCover <dbl>, uvIndex <dbl>, visibility <dbl>, ozone <dbl>,
## #   precipType <chr>

names(input_data)

## [1] "berlin"   "toronto"  "tel_aviv" "zurich"

map() can be included in your pipe in the following way:

input_files %>%
  map(~ readxl::read_excel(here(.)))

## $berlin
## # A tibble: 49 x 18
##   time                summary icon  precipIntensity precipProbabili…
##   <dttm>              <chr>   <chr>           <dbl>            <dbl>
## 1 2019-04-28 15:00:00 Mostly… part…               0                0
## 2 2019-04-28 16:00:00 Mostly… part…               0                0
## 3 2019-04-28 17:00:00 Mostly… part…               0                0
## # … with 46 more rows, and 13 more variables: temperature <dbl>,
## #   apparentTemperature <dbl>, dewPoint <dbl>, humidity <dbl>,
## #   pressure <dbl>, windSpeed <dbl>, windGust <dbl>, windBearing <dbl>,
## #   cloudCover <dbl>, uvIndex <dbl>, visibility <dbl>, ozone <dbl>,
## #   precipType <chr>
## 
## $toronto
## # A tibble: 49 x 18
##   time                summary icon  precipIntensity precipProbabili…
##   <dttm>              <chr>   <chr>           <dbl>            <dbl>
## 1 2019-04-28 15:00:00 Partly… part…               0                0
## 2 2019-04-28 16:00:00 Clear   clea…               0                0
## 3 2019-04-28 17:00:00 Clear   clea…               0                0
## # … with 46 more rows, and 13 more variables: temperature <dbl>,
## #   apparentTemperature <dbl>, dewPoint <dbl>, humidity <dbl>,
## #   pressure <dbl>, windSpeed <dbl>, windGust <dbl>, windBearing <dbl>,
## #   cloudCover <dbl>, uvIndex <dbl>, visibility <dbl>, ozone <dbl>,
## #   precipType <chr>
## 
## $tel_aviv
## # A tibble: 49 x 17
##   time                summary icon  precipIntensity precipProbabili…
##   <dttm>              <chr>   <chr>           <dbl>            <dbl>
## 1 2019-04-28 15:00:00 Partly… part…               0                0
## 2 2019-04-28 16:00:00 Clear   clea…               0                0
## 3 2019-04-28 17:00:00 Clear   clea…               0                0
## # … with 46 more rows, and 12 more variables: temperature <dbl>,
## #   apparentTemperature <dbl>, dewPoint <dbl>, humidity <dbl>,
## #   pressure <dbl>, windSpeed <dbl>, windGust <dbl>, windBearing <dbl>,
## #   cloudCover <dbl>, uvIndex <dbl>, visibility <dbl>, ozone <dbl>
## 
## $zurich
## # A tibble: 49 x 18
##   time                summary icon  precipIntensity precipProbabili…
##   <dttm>              <chr>   <chr>           <dbl>            <dbl>
## 1 2019-04-28 15:00:00 Mostly… part…           0.267             0.28
## 2 2019-04-28 16:00:00 Mostly… part…           0.198             0.27
## 3 2019-04-28 17:00:00 Mostly… part…           0.137             0.25
## # … with 46 more rows, and 13 more variables: precipType <chr>,
## #   temperature <dbl>, apparentTemperature <dbl>, dewPoint <dbl>,
## #   humidity <dbl>, pressure <dbl>, windSpeed <dbl>, windGust <dbl>,
## #   windBearing <dbl>, cloudCover <dbl>, uvIndex <dbl>, visibility <dbl>,
## #   ozone <dbl>
2.6.1 Exercises

Read only the data for Toronto and Tel Aviv, using subsetting or filter(). Compare.

input_files[_____] %>% 
  map(~ readxl::read_excel(here(.)))

input_files %>%
  ___() %>% 
  filter(name %in% c(_____)) %>% 
  ___() %>% 
  map(~ readxl::read_excel(here(.)))

## $toronto
 ## # A tibble: 49 x 18
 ##   time                summary icon  precipIntensity precipProbabili…
 ##   <dttm>              <chr>   <chr>           <dbl>            <dbl>
 ## 1 2019-04-28 15:00:00 Partly… part…               0                0
 ## 2 2019-04-28 16:00:00 Clear   clea…               0                0
 ## 3 2019-04-28 17:00:00 Clear   clea…               0                0
 ## # … with 46 more rows, and 13 more variables: temperature <dbl>,
 ## #   apparentTemperature <dbl>, dewPoint <dbl>, humidity <dbl>,
 ## #   pressure <dbl>, windSpeed <dbl>, windGust <dbl>, windBearing <dbl>,
 ## #   cloudCover <dbl>, uvIndex <dbl>, visibility <dbl>, ozone <dbl>,
 ## #   precipType <chr>
 ## 
 ## $tel_aviv
 ## # A tibble: 49 x 17
 ##   time                summary icon  precipIntensity precipProbabili…
 ##   <dttm>              <chr>   <chr>           <dbl>            <dbl>
 ## 1 2019-04-28 15:00:00 Partly… part…               0                0
 ## 2 2019-04-28 16:00:00 Clear   clea…               0                0
 ## 3 2019-04-28 17:00:00 Clear   clea…               0                0
 ## # … with 46 more rows, and 12 more variables: temperature <dbl>,
 ## #   apparentTemperature <dbl>, dewPoint <dbl>, humidity <dbl>,
 ## #   pressure <dbl>, windSpeed <dbl>, windGust <dbl>, windBearing <dbl>,
 ## #   cloudCover <dbl>, uvIndex <dbl>, visibility <dbl>, ozone <dbl>

## $toronto
 ## # A tibble: 49 x 18
 ##   time                summary icon  precipIntensity precipProbabili…
 ##   <dttm>              <chr>   <chr>           <dbl>            <dbl>
 ## 1 2019-04-28 15:00:00 Partly… part…               0                0
 ## 2 2019-04-28 16:00:00 Clear   clea…               0                0
 ## 3 2019-04-28 17:00:00 Clear   clea…               0                0
 ## # … with 46 more rows, and 13 more variables: temperature <dbl>,
 ## #   apparentTemperature <dbl>, dewPoint <dbl>, humidity <dbl>,
 ## #   pressure <dbl>, windSpeed <dbl>, windGust <dbl>, windBearing <dbl>,
 ## #   cloudCover <dbl>, uvIndex <dbl>, visibility <dbl>, ozone <dbl>,
 ## #   precipType <chr>
 ## 
 ## $tel_aviv
 ## # A tibble: 49 x 17
 ##   time                summary icon  precipIntensity precipProbabili…
 ##   <dttm>              <chr>   <chr>           <dbl>            <dbl>
 ## 1 2019-04-28 15:00:00 Partly… part…               0                0
 ## 2 2019-04-28 16:00:00 Clear   clea…               0                0
 ## 3 2019-04-28 17:00:00 Clear   clea…               0                0
 ## # … with 46 more rows, and 12 more variables: temperature <dbl>,
 ## #   apparentTemperature <dbl>, dewPoint <dbl>, humidity <dbl>,
 ## #   pressure <dbl>, windSpeed <dbl>, windGust <dbl>, windBearing <dbl>,
 ## #   cloudCover <dbl>, uvIndex <dbl>, visibility <dbl>, ozone <dbl>

Compute the absolute file name with here() outside of the map() call.

input_files %>% 
  enframe() %>% 
  ___(_____) %>% 
  deframe() %>% 
  map(~ readxl::read_excel(.))

## $berlin
 ## # A tibble: 49 x 18
 ##   time                summary icon  precipIntensity precipProbabili…
 ##   <dttm>              <chr>   <chr>           <dbl>            <dbl>
 ## 1 2019-04-28 15:00:00 Mostly… part…               0                0
 ## 2 2019-04-28 16:00:00 Mostly… part…               0                0
 ## 3 2019-04-28 17:00:00 Mostly… part…               0                0
 ## # … with 46 more rows, and 13 more variables: temperature <dbl>,
 ## #   apparentTemperature <dbl>, dewPoint <dbl>, humidity <dbl>,
 ## #   pressure <dbl>, windSpeed <dbl>, windGust <dbl>, windBearing <dbl>,
 ## #   cloudCover <dbl>, uvIndex <dbl>, visibility <dbl>, ozone <dbl>,
 ## #   precipType <chr>
 ## 
 ## $toronto
 ## # A tibble: 49 x 18
 ##   time                summary icon  precipIntensity precipProbabili…
 ##   <dttm>              <chr>   <chr>           <dbl>            <dbl>
 ## 1 2019-04-28 15:00:00 Partly… part…               0                0
 ## 2 2019-04-28 16:00:00 Clear   clea…               0                0
 ## 3 2019-04-28 17:00:00 Clear   clea…               0                0
 ## # … with 46 more rows, and 13 more variables: temperature <dbl>,
 ## #   apparentTemperature <dbl>, dewPoint <dbl>, humidity <dbl>,
 ## #   pressure <dbl>, windSpeed <dbl>, windGust <dbl>, windBearing <dbl>,
 ## #   cloudCover <dbl>, uvIndex <dbl>, visibility <dbl>, ozone <dbl>,
 ## #   precipType <chr>
 ## 
 ## $tel_aviv
 ## # A tibble: 49 x 17
 ##   time                summary icon  precipIntensity precipProbabili…
 ##   <dttm>              <chr>   <chr>           <dbl>            <dbl>
 ## 1 2019-04-28 15:00:00 Partly… part…               0                0
 ## 2 2019-04-28 16:00:00 Clear   clea…               0                0
 ## 3 2019-04-28 17:00:00 Clear   clea…               0                0
 ## # … with 46 more rows, and 12 more variables: temperature <dbl>,
 ## #   apparentTemperature <dbl>, dewPoint <dbl>, humidity <dbl>,
 ## #   pressure <dbl>, windSpeed <dbl>, windGust <dbl>, windBearing <dbl>,
 ## #   cloudCover <dbl>, uvIndex <dbl>, visibility <dbl>, ozone <dbl>
 ## 
 ## $zurich
 ## # A tibble: 49 x 18
 ##   time                summary icon  precipIntensity precipProbabili…
 ##   <dttm>              <chr>   <chr>           <dbl>            <dbl>
 ## 1 2019-04-28 15:00:00 Mostly… part…           0.267             0.28
 ## 2 2019-04-28 16:00:00 Mostly… part…           0.198             0.27
 ## 3 2019-04-28 17:00:00 Mostly… part…           0.137             0.25
 ## # … with 46 more rows, and 13 more variables: precipType <chr>,
 ## #   temperature <dbl>, apparentTemperature <dbl>, dewPoint <dbl>,
 ## #   humidity <dbl>, pressure <dbl>, windSpeed <dbl>, windGust <dbl>,
 ## #   windBearing <dbl>, cloudCover <dbl>, uvIndex <dbl>, visibility <dbl>,
 ## #   ozone <dbl>
…
How to selectively manipulate specific parts of a list of datasets?

We start with the named list of tibbles called input_data from section “Processing all files”.
Of each tibble we only want the column time and all the columns whose name contains “emperature”.
We test with the first entry:

input_data[[1]] %>%
  select(time, contains("emperature"))

## # A tibble: 49 x 3
##   time                temperature apparentTemperature
##   <dttm>                    <dbl>               <dbl>
## 1 2019-04-28 15:00:00        13.4                13.4
## 2 2019-04-28 16:00:00        13.6                13.6
## 3 2019-04-28 17:00:00        14.1                14.1
## # … with 46 more rows

To apply this on all entries, we use map() again.
Note that we need an explicit dot (.) in the select() call here, to indicate the position where each sub-dataset will be plugged in.

input_data %>%
  map(~ select(., time, contains("emperature")))

## $berlin
## # A tibble: 49 x 3
##   time                temperature apparentTemperature
##   <dttm>                    <dbl>               <dbl>
## 1 2019-04-28 15:00:00        13.4                13.4
## 2 2019-04-28 16:00:00        13.6                13.6
## 3 2019-04-28 17:00:00        14.1                14.1
## # … with 46 more rows
## 
## $toronto
## # A tibble: 49 x 3
##   time                temperature apparentTemperature
##   <dttm>                    <dbl>               <dbl>
## 1 2019-04-28 15:00:00        7.46                3.96
## 2 2019-04-28 16:00:00        8.17                5.04
## 3 2019-04-28 17:00:00        8.82                6.52
## # … with 46 more rows
## 
## $tel_aviv
## # A tibble: 49 x 3
##   time                temperature apparentTemperature
##   <dttm>                    <dbl>               <dbl>
## 1 2019-04-28 15:00:00        23.9                23.9
## 2 2019-04-28 16:00:00        23.1                23.1
## 3 2019-04-28 17:00:00        22.4                22.4
## # … with 46 more rows
## 
## $zurich
…
