7 Tidy evaluation | Programming in the tidyverse
…
summarize_ungroup <- function(.data, ...) {
  .data %>%
    summarize(...) %>%
    ungroup()
}

mean_airtime_per_day <-
  nycflights13::flights %>%
  group_by(year, month, day) %>%
  summarize_ungroup(mean(air_time, na.rm = TRUE))

mean_airtime_per_day

## # A tibble: 365 x 4
##    year month   day `mean(air_time, na.rm = TRUE)`
##   <int> <int> <int>                          <dbl>
## 1  2013     1     1                           170.
## 2  2013     1     2                           162.
## 3  2013     1     3                           157.
## # … with 362 more rows
…
  # Use (unquote-splice) with !!!
  .data %>%
    summarize(!!!quos) %>%
    ungroup()
}

mean_airtime_per_day <-
  nycflights13::flights %>%
  group_by(year, month, day) %>%
  summarize_ungroup(mean(air_time, na.rm = TRUE))

mean_airtime_per_day

## # A tibble: 365 x 4
##    year month   day `mean(air_time, na.rm = TRUE)`
##   <int> <int> <int>                          <dbl>
## 1  2013     1     1                           170.
## 2  2013     1     2                           162.
## 3  2013     1     3                           157.
## # … with 362 more rows
…
  # Use (unquote-splice) with !!!
  .data %>%
    group_by(!!!unnamed_quos) %>%
    summarize(!!!named_quos) %>%
    ungroup()
}

mean_airtime_per_day <-
  nycflights13::flights %>%
  gsu(year, month, day, mean_air_time = mean(air_time, na.rm = TRUE))

mean_airtime_per_day

## # A tibble: 365 x 4
##    year month   day mean_air_time
##   <int> <int> <int>         <dbl>
## 1  2013     1     1          170.
## 2  2013     1     2          162.
## 3  2013     1     3          157.
## # … with 362 more rows
…
